Spectrum Name:
Description:
Student ID:
Detector Used:
Comments:
Acquisition Mode:,PHA Pre-Amp
High Voltage:,0
Conversion Gain:,1024
Coarse Gain:,1
Fine Gain:,1.00
Upper Discriminator:,1048
Lower Discriminator:,14
Calibration Coefficients:Elapsed Real Time:,60.52
Elapsed Live Time:,58.76
Start Time:,February 04, 2020, 09:42:35
End Time:,February 04, 2020, 09:43:35
ROIs:
ROI:,Low,High,Gross,Net,FWHM,Centroid


Channel Data:
Channel,Energy,Counts
0,,0
1,,0
2,,0
3,,0
4,,0
5,,0
6,,0
7,,0
8,,0
9,,0
10,,0
11,,0
12,,0
13,,0
14,,0
15,,0
16,,0
17,,1
18,,35
19,,198
20,,251
21,,339
22,,377
23,,443
24,,526
25,,487
26,,362
27,,279
28,,247
29,,275
30,,301
31,,295
32,,365
33,,338
34,,344
35,,340
36,,354
37,,357
38,,308
39,,368
40,,320
41,,310
42,,322
43,,262
44,,338
45,,311
46,,319
47,,310
48,,304
49,,318
50,,320
51,,331
52,,321
53,,295
54,,301
55,,300
56,,319
57,,297
58,,310
59,,313
60,,327
61,,331
62,,302
63,,330
64,,294
65,,261
66,,304
67,,292
68,,312
69,,283
70,,306
71,,292
72,,308
73,,305
74,,290
75,,285
76,,280
77,,306
78,,330
79,,294
80,,328
81,,300
82,,301
83,,299
84,,300
85,,288
86,,312
87,,270
88,,296
89,,308
90,,288
91,,270
92,,264
93,,303
94,,311
95,,282
96,,292
97,,280
98,,307
99,,271
100,,298
101,,282
102,,275
103,,276
104,,262
105,,288
106,,269
107,,276
108,,275
109,,302
110,,291
111,,270
112,,275
113,,262
114,,305
115,,274
116,,280
117,,262
118,,277
119,,286
120,,281
121,,291
122,,283
123,,340
124,,344
125,,322
126,,303
127,,324
128,,326
129,,336
130,,361
131,,333
132,,355
133,,334
134,,328
135,,383
136,,326
137,,349
138,,340
139,,311
140,,358
141,,351
142,,347
143,,326
144,,343
145,,362
146,,329
147,,331
148,,340
149,,344
150,,363
151,,326
152,,331
153,,351
154,,271
155,,306
156,,336
157,,294
158,,330
159,,302
160,,285
161,,287
162,,274
163,,288
164,,293
165,,272
166,,306
167,,278
168,,305
169,,300
170,,298
171,,293
172,,257
173,,297
174,,300
175,,258
176,,311
177,,280
178,,253
179,,260
180,,270
181,,290
182,,254
183,,255
184,,269
185,,259
186,,285
187,,271
188,,278
189,,248
190,,296
191,,268
192,,251
193,,233
194,,250
195,,236
196,,240
197,,214
198,,276
199,,235
200,,253
201,,242
202,,242
203,,251
204,,260
205,,255
206,,276
207,,252
208,,248
209,,265
210,,227
211,,276
212,,251
213,,249
214,,249
215,,276
216,,262
217,,243
218,,224
219,,262
220,,233
221,,249
222,,222
223,,233
224,,260
225,,213
226,,248
227,,223
228,,240
229,,238
230,,241
231,,210
232,,257
233,,243
234,,271
235,,246
236,,266
237,,269
238,,247
239,,251
240,,265
241,,252
242,,245
243,,274
244,,267
245,,254
246,,271
247,,248
248,,231
249,,293
250,,270
251,,251
252,,245
253,,242
254,,252
255,,239
256,,227
257,,259
258,,259
259,,250
260,,273
261,,253
262,,261
263,,278
264,,269
265,,263
266,,267
267,,265
268,,249
269,,249
270,,280
271,,264
272,,258
273,,297
274,,295
275,,286
276,,298
277,,276
278,,292
279,,272
280,,304
281,,307
282,,267
283,,303
284,,274
285,,287
286,,327
287,,312
288,,290
289,,301
290,,285
291,,320
292,,331
293,,339
294,,314
295,,330
296,,326
297,,347
298,,320
299,,328
300,,331
301,,340
302,,348
303,,335
304,,342
305,,361
306,,372
307,,374
308,,342
309,,379
310,,377
311,,375
312,,350
313,,351
314,,382
315,,364
316,,373
317,,389
318,,388
319,,374
320,,402
321,,373
322,,394
323,,406
324,,383
325,,416
326,,370
327,,351
328,,303
329,,318
330,,290
331,,257
332,,203
333,,222
334,,221
335,,171
336,,194
337,,215
338,,202
339,,182
340,,183
341,,191
342,,177
343,,182
344,,168
345,,161
346,,161
347,,145
348,,168
349,,148
350,,166
351,,146
352,,161
353,,187
354,,173
355,,152
356,,119
357,,116
358,,127
359,,117
360,,121
361,,111
362,,99
363,,100
364,,114
365,,115
366,,106
367,,97
368,,105
369,,106
370,,96
371,,87
372,,106
373,,86
374,,88
375,,67
376,,69
377,,69
378,,93
379,,74
380,,76
381,,97
382,,62
383,,50
384,,57
385,,50
386,,57
387,,58
388,,52
389,,44
390,,52
391,,52
392,,49
393,,44
394,,54
395,,53
396,,40
397,,40
398,,51
399,,35
400,,45
401,,44
402,,38
403,,53
404,,60
405,,42
406,,58
407,,45
408,,35
409,,48
410,,41
411,,37
412,,40
413,,42
414,,38
415,,37
416,,40
417,,42
418,,39
419,,43
420,,37
421,,44
422,,35
423,,45
424,,33
425,,48
426,,50
427,,31
428,,35
429,,39
430,,35
431,,38
432,,32
433,,31
434,,42
435,,34
436,,38
437,,41
438,,30
439,,40
440,,44
441,,37
442,,36
443,,43
444,,37
445,,35
446,,42
447,,28
448,,45
449,,61
450,,44
451,,56
452,,56
453,,51
454,,75
455,,86
456,,94
457,,150
458,,839
459,,9236
460,,12290
461,,627
462,,17
463,,21
464,,9
465,,8
466,,5
467,,6
468,,12
469,,9
470,,5
471,,4
472,,13
473,,6
474,,10
475,,5
476,,8
477,,6
478,,4
479,,7
480,,12
481,,6
482,,1
483,,4
484,,4
485,,6
486,,7
487,,17
488,,5
489,,5
490,,2
491,,6
492,,6
493,,5
494,,3
495,,6
496,,6
497,,3
498,,4
499,,4
500,,0
501,,6
502,,5
503,,3
504,,2
505,,4
506,,4
507,,8
508,,5
509,,8
510,,5
511,,4
512,,3
513,,8
514,,4
515,,5
516,,6
517,,4
518,,3
519,,2
520,,5
521,,6
522,,6
523,,1
524,,2
525,,5
526,,2
527,,6
528,,3
529,,7
530,,6
531,,3
532,,6
533,,2
534,,3
535,,2
536,,5
537,,2
538,,4
539,,3
540,,4
541,,2
542,,3
543,,3
544,,4
545,,5
546,,4
547,,3
548,,4
549,,4
550,,4
551,,3
552,,3
553,,4
554,,2
555,,2
556,,7
557,,2
558,,3
559,,1
560,,4
561,,2
562,,3
563,,4
564,,7
565,,3
566,,6
567,,2
568,,1
569,,0
570,,5
571,,4
572,,3
573,,2
574,,5
575,,4
576,,4
577,,4
578,,2
579,,2
580,,5
581,,3
582,,2
583,,3
584,,1
585,,4
586,,2
587,,4
588,,3
589,,5
590,,4
591,,4
592,,3
593,,2
594,,1
595,,3
596,,1
597,,1
598,,3
599,,4
600,,4
601,,2
602,,1
603,,3
604,,1
605,,2
606,,1
607,,1
608,,3
609,,2
610,,2
611,,2
612,,5
613,,2
614,,3
615,,3
616,,2
617,,4
618,,4
619,,0
620,,4
621,,3
622,,0
623,,0
624,,2
625,,1
626,,3
627,,2
628,,0
629,,3
630,,4
631,,3
632,,3
633,,2
634,,3
635,,5
636,,1
637,,2
638,,2
639,,3
640,,1
641,,3
642,,5
643,,1
644,,0
645,,3
646,,2
647,,2
648,,1
649,,2
650,,2
651,,2
652,,1
653,,4
654,,0
655,,2
656,,0
657,,0
658,,1
659,,2
660,,2
661,,4
662,,5
663,,1
664,,5
665,,3
666,,3
667,,2
668,,2
669,,5
670,,0
671,,3
672,,2
673,,4
674,,5
675,,1
676,,7
677,,0
678,,1
679,,1
680,,4
681,,2
682,,1
683,,1
684,,3
685,,1
686,,4
687,,3
688,,0
689,,2
690,,3
691,,3
692,,2
693,,2
694,,0
695,,4
696,,2
697,,0
698,,2
699,,1
700,,1
701,,1
702,,2
703,,2
704,,3
705,,4
706,,1
707,,0
708,,3
709,,1
710,,2
711,,3
712,,2
713,,1
714,,2
715,,0
716,,0
717,,4
718,,2
719,,2
720,,1
721,,2
722,,2
723,,1
724,,2
725,,2
726,,3
727,,2
728,,6
729,,0
730,,2
731,,0
732,,4
733,,3
734,,2
735,,2
736,,1
737,,1
738,,1
739,,4
740,,2
741,,3
742,,1
743,,3
744,,2
745,,1
746,,0
747,,1
748,,1
749,,2
750,,3
751,,3
752,,1
753,,1
754,,1
755,,1
756,,2
757,,2
758,,0
759,,0
760,,2
761,,1
762,,2
763,,1
764,,3
765,,3
766,,1
767,,0
768,,2
769,,0
770,,2
771,,4
772,,1
773,,2
774,,0
775,,4
776,,2
777,,1
778,,3
779,,2
780,,2
781,,5
782,,1
783,,0
784,,1
785,,1
786,,0
787,,1
788,,0
789,,1
790,,1
791,,1
792,,0
793,,2
794,,4
795,,2
796,,2
797,,0
798,,1
799,,3
800,,1
801,,1
802,,1
803,,0
804,,1
805,,1
806,,0
807,,1
808,,1
809,,2
810,,2
811,,2
812,,1
813,,1
814,,2
815,,0
816,,4
817,,15
818,,10
819,,1
820,,0
821,,2
822,,1
823,,7
824,,2
825,,3
826,,0
827,,0
828,,2
829,,1
830,,1
831,,3
832,,0
833,,1
834,,3
835,,1
836,,0
837,,0
838,,0
839,,0
840,,0
841,,0
842,,0
843,,1
844,,1
845,,1
846,,1
847,,2
848,,1
849,,1
850,,1
851,,0
852,,1
853,,4
854,,0
855,,1
856,,2
857,,0
858,,0
859,,1
860,,1
861,,0
862,,2
863,,0
864,,1
865,,2
866,,0
867,,3
868,,1
869,,1
870,,1
871,,0
872,,0
873,,1
874,,0
875,,0
876,,0
877,,1
878,,0
879,,1
880,,0
881,,1
882,,3
883,,0
884,,3
885,,1
886,,2
887,,3
888,,13
889,,4
890,,0
891,,0
892,,1
893,,0
894,,0
895,,0
896,,1
897,,0
898,,0
899,,0
900,,2
901,,1
902,,0
903,,0
904,,0
905,,0
906,,1
907,,0
908,,2
909,,0
910,,0
911,,0
912,,1
913,,0
914,,0
915,,2
916,,0
917,,2
918,,1
919,,2
920,,2
921,,0
922,,0
923,,1
924,,1
925,,0
926,,0
927,,1
928,,2
929,,12
930,,2
931,,0
932,,0
933,,0
934,,0
935,,0
936,,0
937,,0
938,,1
939,,1
940,,0
941,,1
942,,0
943,,1
944,,0
945,,0
946,,1
947,,0
948,,0
949,,1
950,,0
951,,0
952,,0
953,,0
954,,0
955,,2
956,,0
957,,1
958,,0
959,,0
960,,0
961,,2
962,,0
963,,1
964,,0
965,,0
966,,0
967,,0
968,,1
969,,0
970,,0
971,,2
972,,0
973,,0
974,,0
975,,0
976,,0
977,,1
978,,0
979,,0
980,,0
981,,0
982,,1
983,,0
984,,0
985,,0
986,,0
987,,0
988,,0
989,,0
990,,0
991,,0
992,,0
993,,0
994,,0
995,,0
996,,0
997,,0
998,,1
999,,0
1000,,0
1001,,0
1002,,0
1003,,0
1004,,0
1005,,0
1006,,1
1007,,0
1008,,1
1009,,0
1010,,0
1011,,1
1012,,0
1013,,0
1014,,0
1015,,0
1016,,0
1017,,3
1018,,6
1019,,15
1020,,0
1021,,0
1022,,0
1023,,0
