Spectrum Name:
Description:
Student ID:
Detector Used:
Comments:
Acquisition Mode:,PHA Pre-Amp
High Voltage:,0
Conversion Gain:,1024
Coarse Gain:,1
Fine Gain:,1.00
Upper Discriminator:,1048
Lower Discriminator:,14
Calibration Coefficients:Elapsed Real Time:,60.59
Elapsed Live Time:,60.15
Start Time:,January 28, 2020, 10:09:26
End Time:,January 28, 2020, 10:10:27
ROIs:
ROI:,Low,High,Gross,Net,FWHM,Centroid


Channel Data:
Channel,Energy,Counts
0,,0
1,,0
2,,0
3,,0
4,,0
5,,0
6,,0
7,,0
8,,0
9,,0
10,,0
11,,0
12,,0
13,,0
14,,0
15,,0
16,,0
17,,1
18,,5
19,,22
20,,54
21,,62
22,,50
23,,50
24,,52
25,,41
26,,33
27,,31
28,,41
29,,30
30,,42
31,,38
32,,36
33,,35
34,,42
35,,31
36,,31
37,,38
38,,32
39,,36
40,,37
41,,50
42,,57
43,,39
44,,61
45,,49
46,,64
47,,65
48,,57
49,,55
50,,50
51,,57
52,,66
53,,79
54,,72
55,,81
56,,97
57,,109
58,,102
59,,108
60,,115
61,,130
62,,127
63,,153
64,,181
65,,195
66,,193
67,,198
68,,206
69,,227
70,,204
71,,186
72,,197
73,,196
74,,177
75,,145
76,,186
77,,154
78,,175
79,,218
80,,227
81,,264
82,,327
83,,450
84,,592
85,,786
86,,1036
87,,1261
88,,1497
89,,1604
90,,1792
91,,1771
92,,1697
93,,1578
94,,1417
95,,1104
96,,858
97,,673
98,,604
99,,468
100,,408
101,,318
102,,270
103,,260
104,,221
105,,208
106,,151
107,,121
108,,123
109,,104
110,,83
111,,73
112,,58
113,,61
114,,76
115,,59
116,,46
117,,61
118,,57
119,,54
120,,52
121,,50
122,,54
123,,56
124,,47
125,,62
126,,45
127,,52
128,,51
129,,59
130,,38
131,,57
132,,50
133,,55
134,,46
135,,46
136,,45
137,,45
138,,38
139,,47
140,,48
141,,46
142,,44
143,,44
144,,48
145,,49
146,,38
147,,30
148,,51
149,,54
150,,46
151,,35
152,,45
153,,38
154,,43
155,,37
156,,46
157,,49
158,,39
159,,35
160,,35
161,,32
162,,43
163,,42
164,,37
165,,36
166,,43
167,,45
168,,29
169,,36
170,,35
171,,36
172,,36
173,,36
174,,33
175,,30
176,,32
177,,29
178,,34
179,,29
180,,27
181,,30
182,,29
183,,27
184,,29
185,,30
186,,22
187,,28
188,,23
189,,27
190,,32
191,,22
192,,31
193,,24
194,,30
195,,23
196,,21
197,,26
198,,33
199,,20
200,,20
201,,22
202,,23
203,,21
204,,25
205,,28
206,,32
207,,23
208,,27
209,,23
210,,25
211,,27
212,,25
213,,20
214,,27
215,,27
216,,21
217,,24
218,,22
219,,19
220,,18
221,,19
222,,21
223,,17
224,,17
225,,20
226,,34
227,,14
228,,17
229,,33
230,,10
231,,17
232,,19
233,,24
234,,17
235,,18
236,,19
237,,21
238,,21
239,,21
240,,20
241,,22
242,,21
243,,28
244,,15
245,,22
246,,22
247,,19
248,,34
249,,22
250,,27
251,,17
252,,23
253,,34
254,,24
255,,24
256,,27
257,,19
258,,16
259,,23
260,,22
261,,17
262,,17
263,,21
264,,26
265,,19
266,,21
267,,17
268,,13
269,,22
270,,15
271,,9
272,,11
273,,13
274,,13
275,,12
276,,15
277,,16
278,,11
279,,13
280,,13
281,,12
282,,16
283,,11
284,,6
285,,5
286,,13
287,,7
288,,11
289,,11
290,,13
291,,9
292,,12
293,,11
294,,12
295,,14
296,,9
297,,6
298,,14
299,,13
300,,8
301,,11
302,,8
303,,12
304,,10
305,,14
306,,8
307,,9
308,,5
309,,12
310,,11
311,,4
312,,12
313,,11
314,,10
315,,7
316,,18
317,,9
318,,12
319,,15
320,,8
321,,13
322,,7
323,,8
324,,8
325,,10
326,,9
327,,9
328,,8
329,,9
330,,8
331,,9
332,,8
333,,13
334,,4
335,,7
336,,11
337,,6
338,,21
339,,11
340,,6
341,,16
342,,11
343,,7
344,,13
345,,14
346,,18
347,,11
348,,16
349,,16
350,,9
351,,14
352,,12
353,,14
354,,11
355,,10
356,,12
357,,7
358,,10
359,,14
360,,11
361,,10
362,,15
363,,13
364,,14
365,,13
366,,8
367,,14
368,,13
369,,8
370,,4
371,,7
372,,14
373,,11
374,,7
375,,8
376,,12
377,,5
378,,6
379,,4
380,,9
381,,5
382,,8
383,,8
384,,7
385,,5
386,,9
387,,4
388,,5
389,,4
390,,8
391,,3
392,,2
393,,8
394,,3
395,,7
396,,5
397,,4
398,,10
399,,2
400,,3
401,,5
402,,3
403,,9
404,,2
405,,3
406,,6
407,,8
408,,2
409,,6
410,,7
411,,2
412,,6
413,,5
414,,3
415,,4
416,,2
417,,0
418,,5
419,,4
420,,4
421,,6
422,,5
423,,9
424,,6
425,,9
426,,10
427,,8
428,,6
429,,5
430,,8
431,,8
432,,7
433,,7
434,,9
435,,5
436,,7
437,,5
438,,9
439,,7
440,,4
441,,2
442,,7
443,,11
444,,9
445,,14
446,,6
447,,14
448,,5
449,,8
450,,14
451,,10
452,,20
453,,9
454,,11
455,,15
456,,7
457,,11
458,,15
459,,7
460,,17
461,,7
462,,12
463,,8
464,,6
465,,7
466,,9
467,,10
468,,7
469,,10
470,,12
471,,11
472,,5
473,,6
474,,4
475,,4
476,,9
477,,8
478,,1
479,,6
480,,1
481,,9
482,,5
483,,7
484,,3
485,,5
486,,3
487,,4
488,,5
489,,2
490,,3
491,,4
492,,2
493,,2
494,,5
495,,3
496,,3
497,,3
498,,3
499,,7
500,,3
501,,4
502,,3
503,,2
504,,4
505,,2
506,,6
507,,2
508,,1
509,,3
510,,5
511,,5
512,,1
513,,2
514,,3
515,,2
516,,2
517,,6
518,,4
519,,6
520,,3
521,,2
522,,1
523,,2
524,,2
525,,3
526,,4
527,,1
528,,2
529,,3
530,,6
531,,4
532,,3
533,,4
534,,4
535,,2
536,,5
537,,1
538,,0
539,,5
540,,2
541,,4
542,,5
543,,2
544,,3
545,,4
546,,4
547,,3
548,,2
549,,2
550,,7
551,,0
552,,3
553,,6
554,,2
555,,2
556,,1
557,,3
558,,1
559,,2
560,,5
561,,4
562,,2
563,,6
564,,2
565,,1
566,,3
567,,4
568,,5
569,,2
570,,3
571,,3
572,,4
573,,0
574,,4
575,,3
576,,2
577,,2
578,,5
579,,2
580,,5
581,,2
582,,1
583,,4
584,,4
585,,2
586,,4
587,,3
588,,5
589,,2
590,,4
591,,5
592,,0
593,,1
594,,1
595,,4
596,,5
597,,1
598,,2
599,,6
600,,6
601,,1
602,,4
603,,2
604,,0
605,,5
606,,1
607,,4
608,,1
609,,4
610,,4
611,,3
612,,3
613,,3
614,,0
615,,1
616,,1
617,,2
618,,2
619,,2
620,,6
621,,4
622,,2
623,,3
624,,1
625,,3
626,,1
627,,2
628,,4
629,,4
630,,3
631,,5
632,,2
633,,3
634,,3
635,,4
636,,1
637,,0
638,,1
639,,1
640,,1
641,,2
642,,2
643,,1
644,,2
645,,3
646,,1
647,,2
648,,4
649,,0
650,,1
651,,2
652,,0
653,,2
654,,2
655,,2
656,,1
657,,2
658,,2
659,,1
660,,2
661,,0
662,,1
663,,3
664,,4
665,,1
666,,2
667,,1
668,,0
669,,3
670,,2
671,,4
672,,2
673,,2
674,,0
675,,0
676,,0
677,,0
678,,1
679,,2
680,,2
681,,2
682,,0
683,,2
684,,2
685,,1
686,,1
687,,1
688,,1
689,,4
690,,0
691,,1
692,,2
693,,1
694,,0
695,,2
696,,3
697,,1
698,,4
699,,1
700,,1
701,,1
702,,3
703,,2
704,,2
705,,0
706,,2
707,,2
708,,4
709,,2
710,,2
711,,2
712,,5
713,,7
714,,1
715,,1
716,,0
717,,3
718,,4
719,,2
720,,3
721,,2
722,,0
723,,1
724,,0
725,,1
726,,2
727,,2
728,,5
729,,1
730,,0
731,,1
732,,2
733,,0
734,,2
735,,2
736,,2
737,,2
738,,3
739,,1
740,,1
741,,1
742,,2
743,,1
744,,1
745,,2
746,,1
747,,0
748,,2
749,,2
750,,1
751,,2
752,,1
753,,2
754,,1
755,,4
756,,3
757,,2
758,,3
759,,4
760,,2
761,,4
762,,3
763,,6
764,,3
765,,0
766,,2
767,,3
768,,0
769,,3
770,,1
771,,2
772,,2
773,,0
774,,2
775,,2
776,,0
777,,4
778,,2
779,,1
780,,3
781,,1
782,,2
783,,1
784,,2
785,,1
786,,1
787,,2
788,,3
789,,2
790,,2
791,,4
792,,3
793,,2
794,,0
795,,2
796,,3
797,,0
798,,1
799,,4
800,,3
801,,1
802,,7
803,,2
804,,1
805,,5
806,,2
807,,0
808,,1
809,,0
810,,3
811,,0
812,,5
813,,1
814,,3
815,,0
816,,0
817,,4
818,,0
819,,2
820,,1
821,,0
822,,1
823,,0
824,,1
825,,1
826,,0
827,,2
828,,1
829,,3
830,,3
831,,1
832,,0
833,,2
834,,1
835,,1
836,,3
837,,5
838,,1
839,,2
840,,0
841,,2
842,,1
843,,0
844,,3
845,,0
846,,3
847,,1
848,,1
849,,2
850,,2
851,,1
852,,1
853,,0
854,,0
855,,0
856,,2
857,,1
858,,4
859,,2
860,,0
861,,1
862,,1
863,,3
864,,1
865,,1
866,,3
867,,0
868,,6
869,,0
870,,1
871,,1
872,,2
873,,2
874,,2
875,,0
876,,3
877,,3
878,,2
879,,0
880,,0
881,,3
882,,3
883,,2
884,,1
885,,1
886,,1
887,,1
888,,1
889,,3
890,,4
891,,1
892,,1
893,,4
894,,1
895,,4
896,,2
897,,2
898,,7
899,,0
900,,1
901,,0
902,,4
903,,1
904,,0
905,,2
906,,1
907,,2
908,,2
909,,2
910,,3
911,,2
912,,1
913,,1
914,,2
915,,0
916,,2
917,,1
918,,1
919,,2
920,,0
921,,0
922,,3
923,,0
924,,3
925,,1
926,,2
927,,2
928,,0
929,,0
930,,1
931,,1
932,,0
933,,2
934,,0
935,,0
936,,1
937,,3
938,,0
939,,0
940,,4
941,,1
942,,0
943,,0
944,,0
945,,1
946,,1
947,,1
948,,3
949,,1
950,,2
951,,1
952,,0
953,,1
954,,2
955,,2
956,,1
957,,0
958,,0
959,,1
960,,3
961,,0
962,,1
963,,0
964,,0
965,,2
966,,2
967,,0
968,,3
969,,2
970,,2
971,,0
972,,1
973,,2
974,,1
975,,3
976,,1
977,,2
978,,1
979,,3
980,,2
981,,4
982,,2
983,,2
984,,2
985,,2
986,,2
987,,3
988,,1
989,,3
990,,1
991,,0
992,,2
993,,1
994,,3
995,,4
996,,1
997,,1
998,,0
999,,1
1000,,0
1001,,4
1002,,0
1003,,0
1004,,2
1005,,1
1006,,1
1007,,2
1008,,0
1009,,1
1010,,1
1011,,2
1012,,0
1013,,1
1014,,1
1015,,1
1016,,1
1017,,0
1018,,0
1019,,0
1020,,0
1021,,1
1022,,0
1023,,0
