Spectrum Name:
Description:
Student ID:
Detector Used:
Comments:
Acquisition Mode:,PHA Pre-Amp
High Voltage:,0
Conversion Gain:,1024
Coarse Gain:,1
Fine Gain:,1.00
Upper Discriminator:,1048
Lower Discriminator:,103
Calibration Coefficients:Elapsed Real Time:,62.58
Elapsed Live Time:,62.29
Start Time:,January 28, 2020, 09:58:02
End Time:,January 28, 2020, 09:59:05
ROIs:
ROI:,Low,High,Gross,Net,FWHM,Centroid


Channel Data:
Channel,Energy,Counts
0,,0
1,,0
2,,0
3,,0
4,,0
5,,0
6,,0
7,,0
8,,0
9,,0
10,,0
11,,0
12,,0
13,,0
14,,0
15,,0
16,,0
17,,0
18,,0
19,,0
20,,0
21,,0
22,,0
23,,0
24,,0
25,,0
26,,0
27,,0
28,,0
29,,0
30,,0
31,,0
32,,0
33,,0
34,,0
35,,0
36,,0
37,,0
38,,0
39,,0
40,,0
41,,0
42,,0
43,,0
44,,0
45,,0
46,,0
47,,0
48,,0
49,,0
50,,0
51,,1
52,,0
53,,0
54,,0
55,,0
56,,0
57,,0
58,,0
59,,0
60,,0
61,,0
62,,0
63,,0
64,,0
65,,0
66,,0
67,,0
68,,0
69,,0
70,,0
71,,0
72,,0
73,,0
74,,0
75,,0
76,,0
77,,0
78,,0
79,,0
80,,0
81,,0
82,,0
83,,0
84,,1
85,,0
86,,0
87,,0
88,,0
89,,0
90,,0
91,,0
92,,0
93,,0
94,,0
95,,0
96,,0
97,,0
98,,0
99,,0
100,,0
101,,0
102,,0
103,,0
104,,1
105,,0
106,,0
107,,25
108,,100
109,,80
110,,82
111,,87
112,,92
113,,78
114,,86
115,,71
116,,80
117,,89
118,,77
119,,67
120,,73
121,,66
122,,78
123,,83
124,,84
125,,66
126,,64
127,,67
128,,81
129,,73
130,,65
131,,58
132,,77
133,,76
134,,79
135,,70
136,,71
137,,72
138,,75
139,,67
140,,61
141,,62
142,,66
143,,74
144,,64
145,,73
146,,72
147,,66
148,,69
149,,73
150,,72
151,,46
152,,56
153,,62
154,,78
155,,56
156,,71
157,,69
158,,60
159,,62
160,,77
161,,77
162,,72
163,,62
164,,59
165,,72
166,,71
167,,54
168,,64
169,,74
170,,58
171,,79
172,,54
173,,68
174,,62
175,,63
176,,64
177,,68
178,,62
179,,46
180,,59
181,,52
182,,54
183,,56
184,,57
185,,70
186,,49
187,,60
188,,46
189,,57
190,,53
191,,54
192,,46
193,,66
194,,42
195,,51
196,,46
197,,65
198,,53
199,,53
200,,59
201,,46
202,,64
203,,39
204,,56
205,,41
206,,65
207,,58
208,,58
209,,53
210,,38
211,,50
212,,44
213,,36
214,,49
215,,49
216,,39
217,,48
218,,44
219,,42
220,,47
221,,57
222,,43
223,,49
224,,64
225,,56
226,,60
227,,35
228,,34
229,,47
230,,51
231,,49
232,,45
233,,40
234,,58
235,,56
236,,44
237,,40
238,,56
239,,50
240,,38
241,,53
242,,51
243,,48
244,,42
245,,50
246,,53
247,,43
248,,48
249,,50
250,,55
251,,38
252,,44
253,,39
254,,55
255,,49
256,,52
257,,37
258,,49
259,,44
260,,40
261,,49
262,,30
263,,42
264,,49
265,,33
266,,40
267,,37
268,,40
269,,30
270,,31
271,,43
272,,36
273,,31
274,,34
275,,45
276,,28
277,,29
278,,31
279,,26
280,,35
281,,39
282,,39
283,,37
284,,26
285,,28
286,,28
287,,32
288,,29
289,,32
290,,40
291,,39
292,,32
293,,34
294,,30
295,,37
296,,39
297,,32
298,,29
299,,26
300,,40
301,,30
302,,26
303,,25
304,,24
305,,28
306,,33
307,,48
308,,28
309,,30
310,,38
311,,29
312,,25
313,,29
314,,25
315,,40
316,,30
317,,33
318,,27
319,,23
320,,32
321,,32
322,,24
323,,27
324,,33
325,,16
326,,40
327,,32
328,,20
329,,24
330,,33
331,,31
332,,34
333,,29
334,,32
335,,32
336,,33
337,,24
338,,37
339,,32
340,,37
341,,25
342,,34
343,,45
344,,30
345,,33
346,,27
347,,29
348,,38
349,,37
350,,38
351,,46
352,,36
353,,48
354,,33
355,,29
356,,18
357,,37
358,,27
359,,48
360,,35
361,,47
362,,37
363,,35
364,,43
365,,25
366,,27
367,,28
368,,32
369,,32
370,,36
371,,30
372,,22
373,,33
374,,19
375,,23
376,,28
377,,28
378,,43
379,,26
380,,21
381,,24
382,,27
383,,21
384,,32
385,,35
386,,26
387,,23
388,,25
389,,23
390,,28
391,,35
392,,33
393,,24
394,,40
395,,26
396,,25
397,,31
398,,19
399,,25
400,,29
401,,28
402,,27
403,,31
404,,40
405,,30
406,,34
407,,31
408,,42
409,,39
410,,30
411,,43
412,,33
413,,34
414,,33
415,,37
416,,31
417,,25
418,,30
419,,36
420,,25
421,,28
422,,23
423,,39
424,,18
425,,31
426,,22
427,,25
428,,26
429,,34
430,,24
431,,32
432,,30
433,,23
434,,20
435,,26
436,,22
437,,21
438,,17
439,,25
440,,26
441,,23
442,,19
443,,26
444,,18
445,,28
446,,23
447,,24
448,,19
449,,28
450,,19
451,,20
452,,24
453,,22
454,,21
455,,21
456,,16
457,,18
458,,24
459,,15
460,,7
461,,14
462,,20
463,,12
464,,22
465,,22
466,,13
467,,18
468,,8
469,,13
470,,10
471,,4
472,,9
473,,13
474,,13
475,,12
476,,8
477,,10
478,,12
479,,7
480,,9
481,,11
482,,3
483,,8
484,,4
485,,4
486,,4
487,,7
488,,5
489,,7
490,,4
491,,10
492,,8
493,,2
494,,4
495,,6
496,,4
497,,6
498,,6
499,,4
500,,1
501,,5
502,,5
503,,4
504,,3
505,,8
506,,8
507,,3
508,,7
509,,3
510,,5
511,,0
512,,5
513,,2
514,,1
515,,2
516,,4
517,,1
518,,4
519,,1
520,,4
521,,7
522,,8
523,,7
524,,6
525,,8
526,,5
527,,8
528,,14
529,,7
530,,9
531,,13
532,,15
533,,5
534,,12
535,,17
536,,14
537,,14
538,,9
539,,18
540,,24
541,,27
542,,34
543,,24
544,,29
545,,28
546,,40
547,,37
548,,52
549,,45
550,,58
551,,73
552,,55
553,,68
554,,71
555,,75
556,,75
557,,84
558,,105
559,,96
560,,104
561,,97
562,,109
563,,103
564,,125
565,,129
566,,117
567,,113
568,,103
569,,120
570,,135
571,,133
572,,131
573,,122
574,,124
575,,117
576,,132
577,,124
578,,115
579,,108
580,,101
581,,124
582,,109
583,,108
584,,112
585,,98
586,,87
587,,95
588,,104
589,,68
590,,75
591,,54
592,,63
593,,60
594,,51
595,,46
596,,53
597,,32
598,,41
599,,37
600,,24
601,,31
602,,33
603,,25
604,,29
605,,22
606,,13
607,,16
608,,12
609,,10
610,,14
611,,11
612,,12
613,,7
614,,6
615,,7
616,,8
617,,5
618,,3
619,,3
620,,7
621,,6
622,,7
623,,4
624,,6
625,,2
626,,3
627,,3
628,,2
629,,1
630,,5
631,,1
632,,2
633,,3
634,,3
635,,6
636,,2
637,,6
638,,5
639,,1
640,,1
641,,4
642,,3
643,,2
644,,8
645,,1
646,,2
647,,4
648,,5
649,,5
650,,6
651,,1
652,,1
653,,3
654,,3
655,,7
656,,4
657,,4
658,,2
659,,3
660,,2
661,,3
662,,1
663,,1
664,,3
665,,3
666,,2
667,,6
668,,2
669,,4
670,,2
671,,2
672,,0
673,,0
674,,4
675,,2
676,,1
677,,3
678,,3
679,,2
680,,1
681,,4
682,,1
683,,4
684,,2
685,,2
686,,1
687,,3
688,,0
689,,1
690,,4
691,,2
692,,2
693,,2
694,,4
695,,5
696,,0
697,,4
698,,4
699,,2
700,,1
701,,1
702,,2
703,,1
704,,1
705,,1
706,,0
707,,2
708,,0
709,,3
710,,3
711,,3
712,,2
713,,7
714,,1
715,,3
716,,2
717,,2
718,,0
719,,3
720,,1
721,,0
722,,3
723,,1
724,,1
725,,2
726,,1
727,,1
728,,0
729,,3
730,,1
731,,2
732,,3
733,,5
734,,2
735,,0
736,,3
737,,0
738,,0
739,,2
740,,2
741,,1
742,,2
743,,3
744,,1
745,,3
746,,1
747,,3
748,,1
749,,3
750,,0
751,,0
752,,2
753,,1
754,,3
755,,2
756,,2
757,,2
758,,0
759,,1
760,,0
761,,3
762,,2
763,,1
764,,0
765,,1
766,,1
767,,2
768,,2
769,,2
770,,4
771,,3
772,,4
773,,2
774,,2
775,,2
776,,2
777,,1
778,,3
779,,1
780,,1
781,,2
782,,4
783,,2
784,,2
785,,2
786,,3
787,,3
788,,1
789,,4
790,,6
791,,5
792,,1
793,,1
794,,1
795,,2
796,,1
797,,1
798,,2
799,,0
800,,3
801,,1
802,,3
803,,3
804,,4
805,,3
806,,2
807,,1
808,,2
809,,3
810,,4
811,,1
812,,1
813,,0
814,,1
815,,2
816,,1
817,,1
818,,3
819,,2
820,,1
821,,3
822,,0
823,,2
824,,1
825,,2
826,,1
827,,2
828,,0
829,,0
830,,1
831,,0
832,,2
833,,1
834,,0
835,,0
836,,1
837,,3
838,,0
839,,1
840,,3
841,,0
842,,3
843,,3
844,,3
845,,0
846,,4
847,,1
848,,1
849,,1
850,,4
851,,1
852,,3
853,,2
854,,3
855,,3
856,,1
857,,4
858,,3
859,,0
860,,0
861,,1
862,,2
863,,0
864,,0
865,,0
866,,0
867,,1
868,,1
869,,0
870,,2
871,,2
872,,1
873,,1
874,,0
875,,1
876,,0
877,,4
878,,0
879,,2
880,,2
881,,2
882,,2
883,,1
884,,2
885,,0
886,,2
887,,2
888,,3
889,,2
890,,2
891,,1
892,,1
893,,0
894,,4
895,,2
896,,0
897,,2
898,,1
899,,2
900,,0
901,,4
902,,2
903,,1
904,,2
905,,0
906,,2
907,,2
908,,1
909,,3
910,,0
911,,3
912,,1
913,,0
914,,1
915,,1
916,,1
917,,1
918,,0
919,,2
920,,1
921,,1
922,,0
923,,2
924,,2
925,,2
926,,2
927,,0
928,,0
929,,0
930,,1
931,,0
932,,1
933,,1
934,,1
935,,1
936,,2
937,,2
938,,1
939,,2
940,,0
941,,3
942,,1
943,,4
944,,0
945,,0
946,,2
947,,2
948,,4
949,,0
950,,0
951,,1
952,,1
953,,2
954,,2
955,,0
956,,3
957,,0
958,,0
959,,1
960,,4
961,,1
962,,0
963,,2
964,,0
965,,2
966,,2
967,,3
968,,2
969,,1
970,,3
971,,1
972,,3
973,,3
974,,2
975,,1
976,,1
977,,2
978,,2
979,,2
980,,0
981,,1
982,,1
983,,1
984,,1
985,,2
986,,2
987,,1
988,,4
989,,1
990,,2
991,,1
992,,3
993,,1
994,,5
995,,3
996,,1
997,,2
998,,0
999,,0
1000,,1
1001,,0
1002,,1
1003,,2
1004,,1
1005,,1
1006,,1
1007,,1
1008,,0
1009,,0
1010,,0
1011,,0
1012,,0
1013,,1
1014,,0
1015,,0
1016,,0
1017,,0
1018,,0
1019,,1
1020,,0
1021,,2
1022,,0
1023,,0
